<?xml version="1.0" encoding="UTF-8"?>
<!DOCTYPE svg PUBLIC "-//W3C//DTD SVG 1.1//EN" "http://www.w3.org/Graphics/SVG/1.1/DTD/svg11.dtd">
<!-- Creator: CorelDRAW X7 -->
<svg xmlns="http://www.w3.org/2000/svg" xml:space="preserve" width="1.26284in" height="0.184028in" version="1.1" style="shape-rendering:geometricPrecision; text-rendering:geometricPrecision; image-rendering:optimizeQuality; fill-rule:evenodd; clip-rule:evenodd"
viewBox="0 0 4593 669"
 xmlns:xlink="http://www.w3.org/1999/xlink">
 <defs>
  <style type="text/css">
   <![CDATA[
    .fil2 {fill:#292929}
    .fil0 {fill:red}
    .fil1 {fill:white}
   ]]>
  </style>
 </defs>
 <g id="Layer_x0020_1">
  <metadata id="CorelCorpID_0Corel-Layer"/>
  <rect class="fil0" width="1263" height="669" rx="88" ry="88"/>
  <path class="fil1" d="M462 435c1,4 2,8 3,12l1 6c3,2 3,8 5,11l2 4c0,2 1,3 2,5 0,0 1,3 1,3 2,2 1,1 2,2 1,5 -1,1 2,4 2,4 5,8 7,11 1,4 0,2 3,3 0,3 0,-1 1,2 0,2 3,6 5,6l2 5 8 7c2,4 -1,3 4,4 0,3 -1,-1 1,2 0,1 1,2 2,2 1,2 3,2 5,4l2 2c1,2 7,7 10,8l2 3c3,1 2,1 4,2 1,0 3,2 3,2 3,1 1,1 3,1 1,2 -2,2 2,2 1,1 0,0 3,1 1,3 0,1 4,3 3,2 2,2 5,1 0,0 1,3 1,3l4 0c1,1 0,1 2,2 0,0 2,1 2,1 3,2 4,2 6,3 2,1 2,1 5,1 1,1 0,0 2,1 2,1 1,1 4,1 2,1 4,1 5,2 4,1 4,1 7,2 3,0 9,1 12,2l7 0c1,1 -1,0 2,1 1,0 2,0 4,0 2,0 5,0 8,0l7 0c5,0 12,-2 17,-2 3,-1 6,-1 9,-3 7,0 18,-5 24,-7 4,-2 7,-3 11,-6 14,-3 46,-30 55,-40 4,-3 8,-7 12,-11 9,-10 25,-34 28,-44 2,-3 3,-5 4,-9 0,-1 0,0 1,-2l5 -21c1,-1 1,0 1,-2 0,-2 0,-3 0,-5l2 -8c0,-4 0,-6 0,-10l0 -6 -1 -15 0 -6c0,-4 -2,-9 -2,-13 0,-4 0,-3 -1,-6 -1,-3 -3,-9 -3,-12 -1,-1 -1,-2 -1,-3 -2,-3 1,1 -3,-2 2,-4 -1,-8 -2,-12l-2 -4 -5 -10c0,-4 0,-1 -2,-3 0,-4 1,0 -2,-2 1,-2 1,-2 -2,-7 -1,-2 -2,-4 -4,-6l0 20 0 7c-1,5 -3,13 -3,18 0,3 -1,3 -1,7 -1,3 -2,8 -3,12 -1,4 -3,7 -4,12 -2,2 -2,3 -4,5 0,2 0,1 -1,3 -2,4 0,0 -2,4 -1,0 -6,7 -8,8 -2,2 -8,8 -8,8 -4,2 -1,0 -3,2 -1,0 -1,0 -3,1 -1,1 -3,1 -5,2 2,-6 5,-14 5,-20 1,-2 2,-5 2,-9 1,-5 4,-12 4,-18 1,-3 1,-3 1,-8 0,-5 2,-11 2,-17l0 -6c1,-6 1,-10 1,-17l0 -7c0,-7 -1,-9 -1,-14l0 -7c-1,-2 -2,-10 -2,-12 -1,-4 -1,-3 -1,-6 -1,-3 -1,-3 -2,-6l-2 -7c0,-4 1,-2 -1,-5 0,-3 -2,-9 -4,-13l-1 -3c-2,-5 -3,-8 -5,-12l-2 -4c-2,-2 -3,-7 -5,-9 -1,-3 -1,-3 -3,-5 -2,-3 -3,-7 -6,-8 -2,-5 0,-2 -4,-5 0,-3 0,-2 -2,-5 -1,-1 -1,0 -2,-1 -1,-2 0,-1 -2,-2 -2,-4 0,-2 -4,-4 0,-3 0,-2 -2,-4 -2,-2 -3,-3 -5,-5l-2 -2c-1,-1 -2,-3 -4,-4 -2,-1 0,0 -2,-2 -3,-1 -1,0 -3,-1 -2,-4 0,-2 -4,-4l-1 -1c-2,-3 -4,-4 -7,-4 -2,-4 1,-2 -3,-4 -2,-1 -3,-2 -5,-3 -3,-3 -2,-3 -5,-2 -2,-4 0,-2 -4,-4 -3,-2 -7,-4 -10,-6 -3,-2 -2,-1 -5,-2 -1,-2 -6,-4 -9,-5l-6 -2c0,-1 1,0 -1,-1 -1,-1 -2,-1 -3,-2 -3,-1 -4,0 -5,-2 -4,-1 -3,-1 -6,-1 -3,-2 -8,-4 -11,-5 -2,0 -3,-1 -5,-1 -1,0 0,0 -2,-1 -1,0 -4,-1 -4,-1 -3,-1 -3,-1 -6,0 -1,-3 2,-2 -2,-2 -1,-1 -3,-1 -4,-1 -4,0 -16,-4 -24,-5 1,3 13,14 15,16l3 2 6 7c0,0 0,0 0,0l1 1c2,4 0,2 4,4 1,3 0,2 3,5 0,0 1,2 1,2 2,2 0,1 2,1 1,3 1,2 3,4 1,2 1,3 3,5 0,0 1,2 1,2 2,2 1,1 2,2 1,3 1,2 2,5 1,2 4,8 6,9 1,3 0,2 2,5 0,3 3,9 4,11l1 5c1,4 3,8 4,12 0,3 0,4 1,6l1 15 0 6c0,6 -2,12 -2,18 -1,3 -1,3 -1,7 0,0 -1,0 -1,1l-2 5c0,2 -1,4 -2,7 -1,3 -4,9 -5,13 -2,3 -6,8 -7,12 -2,1 -6,8 -8,11 -2,2 -2,3 -4,5 -3,4 -3,6 -4,2 1,-3 1,-3 1,-7 0,-6 1,-10 1,-17l0 -6c0,-5 1,-12 -1,-15 0,-7 0,-4 -2,-6 2,-5 -1,-7 -1,-12 -1,-1 -1,-2 -2,-3 -2,-3 2,0 -2,-2 1,-3 1,-2 0,-6 -1,-2 -2,-3 -3,-5 0,-5 0,-1 -1,-3 0,-4 0,0 -2,-2 0,-3 0,1 -1,-2 0,-1 0,-1 -1,-3 -1,-2 -2,-4 -4,-5l0 -2c-1,0 -3,-1 -3,-1l-3 -6c-2,-2 -3,-3 -6,-4l3 16 0 7 -1 16 -2 8c0,4 -2,10 -4,13 -1,4 -4,9 -5,12 -2,4 -5,9 -6,13l-11 14c-8,10 -30,36 -33,46 -4,5 -5,6 -7,12 -1,1 -2,4 -3,6 -1,3 -2,4 -3,7 -2,5 -3,9 -5,14 -2,4 -2,6 -3,10 -1,7 -2,8 -2,18 -2,2 -1,4 -1,8 0,0 1,14 1,14l1 5z"/>
  <path class="fil2" d="M1670 83l90 0 0 503 -90 0 0 -39c-18,17 -36,29 -54,37 -18,7 -37,11 -58,11 -47,0 -88,-18 -122,-54 -34,-37 -51,-82 -51,-136 0,-56 16,-101 49,-137 34,-36 74,-54 121,-54 22,0 42,5 62,13 19,8 36,20 53,36l0 -180zm-96 215c-28,0 -52,10 -70,30 -19,19 -28,45 -28,76 0,31 9,57 28,77 19,20 42,31 70,31 29,0 53,-10 71,-30 19,-20 29,-46 29,-78 0,-32 -10,-57 -29,-77 -18,-19 -42,-29 -71,-29zm314 -224c16,0 30,6 41,18 12,11 17,25 17,41 0,17 -5,30 -17,42 -11,11 -24,17 -40,17 -16,0 -30,-6 -42,-18 -11,-11 -17,-25 -17,-42 0,-16 6,-29 17,-41 12,-11 25,-17 41,-17zm-45 149l90 0 0 363 -90 0 0 -363zm128 0l34 0c0,-36 5,-64 15,-84 10,-19 26,-35 48,-47 21,-12 47,-18 78,-18 27,0 50,5 69,13 20,9 35,21 46,36 11,15 19,35 23,60l-95 0c-3,-10 -9,-18 -17,-24 -8,-5 -17,-8 -27,-8 -10,0 -19,2 -27,8 -8,5 -14,13 -18,22 -3,7 -4,21 -4,42l54 0 0 77 -54 0 0 286 -91 0 0 -286 -34 0 0 -77zm223 0l90 0 0 363 -90 0 0 -363zm156 0l78 0 0 46c9,-18 20,-31 34,-41 14,-9 29,-14 45,-14 12,0 24,3 37,10l-28 78c-10,-5 -19,-8 -26,-8 -14,0 -26,9 -35,26 -10,18 -15,52 -15,102l1 18 0 146 -91 0 0 -363zm602 207l-292 0c5,26 16,47 34,62 18,15 42,23 70,23 34,0 63,-12 87,-36l77 36c-20,27 -42,47 -69,60 -27,13 -58,20 -95,20 -56,0 -103,-18 -138,-54 -36,-36 -54,-80 -54,-134 0,-55 18,-101 54,-138 35,-36 80,-55 134,-55 57,0 103,19 139,55 36,36 54,84 54,144l-1 17zm-90 -71c-6,-20 -18,-36 -36,-48 -17,-13 -38,-19 -61,-19 -26,0 -48,7 -67,21 -12,9 -23,24 -34,46l198 0zm256 -276l0 180c16,-16 34,-28 53,-36 19,-8 39,-13 61,-13 47,0 88,18 121,54 33,36 49,81 49,137 0,54 -17,99 -51,136 -34,36 -75,54 -121,54 -21,0 -41,-4 -59,-11 -18,-8 -36,-20 -53,-37l0 39 -91 0 0 -503 91 0zm95 215c-29,0 -52,10 -71,29 -19,20 -29,45 -29,77 0,32 10,58 29,78 19,20 42,30 71,30 28,0 51,-11 70,-31 19,-20 29,-46 29,-77 0,-31 -10,-57 -28,-76 -19,-20 -43,-30 -71,-30zm533 -75l91 0 0 363 -91 0 0 -39c-18,17 -35,29 -53,37 -18,7 -38,11 -58,11 -47,0 -88,-18 -122,-54 -35,-37 -52,-82 -52,-136 0,-56 17,-101 50,-137 33,-36 73,-54 121,-54 22,0 42,5 61,13 19,8 37,20 53,36l0 -40zm-96 75c-28,0 -51,10 -70,30 -18,19 -28,45 -28,76 0,31 10,57 29,77 19,20 42,31 70,31 28,0 52,-10 71,-30 19,-20 28,-46 28,-78 0,-32 -9,-57 -28,-77 -19,-19 -43,-29 -72,-29zm501 -23l-56 56c-23,-23 -44,-34 -63,-34 -10,0 -18,2 -24,7 -5,4 -8,9 -8,16 0,5 2,9 5,13 4,4 13,10 28,17l33 17c35,17 59,34 72,52 13,18 20,39 20,63 0,32 -12,59 -36,81 -24,21 -55,32 -95,32 -53,0 -95,-21 -127,-62l56 -61c11,12 23,23 38,30 14,8 27,12 38,12 12,0 22,-3 29,-9 8,-6 11,-12 11,-20 0,-14 -13,-28 -39,-41l-31 -15c-59,-30 -88,-67 -88,-111 0,-28 11,-53 33,-73 22,-20 50,-31 85,-31 23,0 45,6 66,16 21,10 38,25 53,45zm442 155l-293 0c5,26 16,47 34,62 18,15 42,23 70,23 34,0 63,-12 87,-36l77 36c-19,27 -42,47 -69,60 -27,13 -58,20 -95,20 -56,0 -103,-18 -138,-54 -36,-36 -54,-80 -54,-134 0,-55 18,-101 54,-138 35,-36 80,-55 134,-55 57,0 103,19 139,55 36,36 54,84 54,144l0 17zm-91 -71c-6,-20 -18,-36 -36,-48 -17,-13 -38,-19 -61,-19 -26,0 -48,7 -67,21 -12,9 -23,24 -33,46l197 0z"/>
 </g>
</svg>
